Day 3 Lab Data Wrangling and Viz
…
```{r}
# two possible solutions
citi |>
  group_by(start_station_name) |> 
  summarize(number_of_trips = n()) |>
  ungroup() |>
  arrange(desc(number_of_trips))

citi |>
  group_by(start_station_name) |> 
  summarize(number_of_trips = n()) |>
  arrange(desc(number_of_trips),.by_group = T)
```

# A tibble: 50 × 2
   start_station_name number_of_trips
   <chr>                        <int>
 1 Grove St PATH                 2115
 2 Exchange Place                1224
 3 Sip Ave                       1084
 4 Hamilton Park                 1069
 5 Morris Canal                   710
 6 Newport PATH                   651
 7 City Hall                      576
 8 Van Vorst Park                 530
 9 Newark Ave                     510
10 Warren St                      481
# ℹ 40 more rows
# A tibble: 50 × 2
   start_station_name number_of_trips
   <chr>                        <int>
 1 Grove St PATH                 2115
 2 Exchange Place                1224
 3 Sip Ave                       1084
 4 Hamilton Park                 1069
 5 Morris Canal                   710
 6 Newport PATH                   651
 7 City Hall                      576
 8 Van Vorst Park                 530
 9 Newark Ave                     510
10 Warren St                      481
# ℹ 40 more rows

```{r}
citi |>
  group_by(end_station_name) |> 
  summarize(number_of_trips = n()) |>
  arrange(desc(number_of_trips),.by_group = T)
```

# A tibble: 55 × 2
   end_station_name number_of_trips
   <chr>                      <int>
 1 Grove St PATH               2743
 2 Exchange Place              1254
 3 Sip Ave                      955
 4 Hamilton Park                949
 5 Newport PATH                 683
 6 City Hall                    672
 7 Morris Canal                 591
 8 Warren St                    519
 9 Newark Ave                   505
10 Paulus Hook                  469
# ℹ 45 more rows
…
Do this using the filter(), group_by(), and summarise() functions.

```{r}
citi |>
  filter((weekday %in% c("Saturday","Sunday")))

# alternatively
citi |>
  mutate(is_weekend = ifelse(weekday %in% c("Saturday","Sunday"),1,0)) |>
  filter(is_weekend == T) |>
  group_by(age_groups) |>
  summarize(avg_trip_length = mean(trip_duration_in_min))
```

# A tibble: 3,155 × 17
   start_time     stop_time   start_station_id start_station_name end_station_id
   <chr>          <chr>                  <dbl> <chr>                       <dbl>
 1 15-01-17 17:20 16-01-17 1…             3202 Newport PATH                 3185
 2 15-1-17 11:39  16-01-17 1…             3203 Hamilton Park                3205
 3 25-02-17 13:14 26-2-17 12…             3192 Liberty Light Rail           3275
 4 25-03-17 14:18 26-03-17 1…             3203 Hamilton Park                3206
 5 25-02-17 16:53 26-2-17 12…             3185 City Hall                    3278
 6 25-02-17 15:32 26-2-17 04…             3209 Brunswick St                 3215
 7 14-01-17 11:21 14-01-17 1…             3199 Newport Pkwy                 3199
 8 25-02-17 15:03 25-2-17 20…             3186 Grove St PATH                3273
 9 25-03-17 17:48 25-03-17 2…             3203 Hamilton Park                3196
10 25-02-17 14:34 25-02-17 1…             3192 Liberty Light Rail           3192
# ℹ 3,145 more rows
# ℹ 12 more variables: end_station_name <chr>, bike_id <dbl>, user_type <chr>,
#   birth_year <dbl>, age <dbl>, age_groups <chr>, trip_duration <dbl>,
#   trip_duration_in_min <dbl>, month <dbl>, season <chr>, temperature <dbl>,
#   weekday <chr>
…
